<svg width="44" height="45" viewBox="0 0 44 45" fill="none" xmlns="http://www.w3.org/2000/svg">
<g clip-path="url(#clip0_742_2080)">
<path d="M21.9998 25.6402C23.7671 25.6402 25.1998 24.2075 25.1998 22.4402C25.1998 20.6729 23.7671 19.2402 21.9998 19.2402C20.2325 19.2402 18.7998 20.6729 18.7998 22.4402C18.7998 24.2075 20.2325 25.6402 21.9998 25.6402Z" fill="white"/>
<path d="M19 12.4404L17.17 14.4404H14C12.9 14.4404 12 15.3404 12 16.4404V28.4404C12 29.5404 12.9 30.4404 14 30.4404H30C31.1 30.4404 32 29.5404 32 28.4404V16.4404C32 15.3404 31.1 14.4404 30 14.4404H26.83L25 12.4404H19ZM22 27.4404C19.24 27.4404 17 25.2004 17 22.4404C17 19.6804 19.24 17.4404 22 17.4404C24.76 17.4404 27 19.6804 27 22.4404C27 25.2004 24.76 27.4404 22 27.4404Z" fill="white"/>
</g>
<rect x="1" y="1.44043" width="42" height="42" rx="21" stroke="white" stroke-width="2"/>
<defs>
<clipPath id="clip0_742_2080">
<rect width="24" height="24" fill="white" transform="translate(10 10.4404)"/>
</clipPath>
</defs>
</svg>